lsi\m1\ctrl\Controleur.class
lsi\m1\model\Utilisateur.class
lsi\m1\utils\Constantes.class
lsi\m1\model\Utilisateur_.class
lsi\m1\model\EmployeSB.class
lsi\m1\model\UtilisateurSB.class
lsi\m1\model\Employes.class
lsi\m1\model\Employes_.class
